<svg width="40" height="40" viewBox="0 0 40 40" fill="none" xmlns="http://www.w3.org/2000/svg">
<path d="M39.0572 22.917C39.0572 34.5627 0.942139 34.5627 0.942139 22.917C0.942139 14.4547 9.47445 7.59465 19.9997 7.59465C30.5249 7.59465 39.0572 14.4547 39.0572 22.917Z" fill="#D7A251"/>
<path d="M32.5748 9.95316C32.2171 9.72032 31.7199 9.81449 31.5085 10.1848C29.243 14.1526 25.7095 21.5619 22.5713 21.04C20.5008 20.6956 23.9528 10.9532 25.178 7.83767C25.3532 7.3922 25.0808 6.89594 24.6096 6.8066C23.2489 6.54841 21.8347 6.40185 20.3825 6.37988C20.1396 6.51711 19.9469 6.62584 19.7039 6.76306C17.0098 11.4118 12.1933 20.77 9.45787 19.7773C8.19251 19.3182 9.42237 12.9342 10.5918 9.70085C10.8263 9.05248 10.1495 8.44805 9.53062 8.75429C3.81264 11.5842 0 16.6623 0 22.4568C0 37.7994 40.1708 36.881 39.9994 22.4568C39.9395 17.4072 37.1037 12.9011 32.5748 9.95316Z" fill="#E0B87A"/>
<path d="M21.3903 6.80566C21.8614 6.89508 22.1339 7.39125 21.9587 7.83673C20.7335 10.9522 20.4418 15.9848 20.7779 17.6659C21.0999 19.2756 21.9379 19.9592 21.9379 19.9592C21.7172 17.2733 24.1825 10.3678 25.1779 7.83665C25.3531 7.39117 25.0807 6.89492 24.6095 6.80558C23.2488 6.54739 21.8346 6.40083 20.3825 6.37886C20.2503 6.45347 20.133 6.5197 20.0144 6.58667C20.4785 6.64743 20.9375 6.71979 21.3903 6.80566Z" fill="#E0B87A"/>
<path d="M8.93945 18.5001C8.79313 16.3712 9.70943 12.1393 10.5917 9.7C10.8262 9.05163 10.1494 8.4472 9.53052 8.75344C8.72842 9.15038 7.96392 9.59159 7.24215 10.0728C6.3446 15.5198 8.75909 18.4709 8.93945 18.5001Z" fill="#E0B87A"/>
<path d="M32.5747 9.95222C32.2169 9.71939 31.7198 9.81355 31.5084 10.1839C31.3381 10.4821 31.1605 10.8001 30.9766 11.1323C34.5516 14.0385 36.7276 18.0393 36.7801 22.4558C36.8625 29.3921 27.6157 33.2046 17.9933 33.5882C28.6578 34.016 40.091 30.1654 39.9994 22.4558C39.9394 17.4063 37.1035 12.9001 32.5747 9.95222Z" fill="#E0B87A"/>
</svg>
