<svg width="12" height="9" viewBox="0 0 12 9" fill="none" xmlns="http://www.w3.org/2000/svg">
<path d="M0.479004 6.46886H11.5114L11.4795 6.78878C11.3809 7.57822 10.8196 8.03917 10.2491 8.03917H1.74126C1.09658 8.03917 0.591949 7.48415 0.511582 6.79464C0.510691 6.78747 0.515121 6.8312 0.479004 6.46886Z" fill="white"/>
<path d="M11.9924 1.64775L11.5816 5.76573H0.409071L0.00786755 1.73518C-0.0995232 0.79001 0.919939 0.353158 1.39059 0.894002C2.52292 2.19966 2.64414 2.4574 3.02453 2.41205C3.1675 2.39466 3.26967 2.33061 3.35451 2.25244C5.6599 0.0406423 5.50912 0.183869 5.53287 0.165095C5.84313 -0.0735923 6.24216 -0.0342172 6.47592 0.160408C8.80535 2.11777 8.69742 2.03157 8.74943 2.06119C8.96693 2.18618 9.22343 2.17027 9.44267 1.95525C10.7372 0.683252 10.6551 0.762518 10.6791 0.743299C11.2713 0.282236 12.0872 0.818018 11.9924 1.64775Z" fill="white"/>
</svg>
